{
  "hosting": {
    "public": "dist/tracker",
    "ignore": [
      "firebase.json",
      "**/.*",
      "**/node_modules/**"
    ]
  },
  "rewrites": [
      {
      "source": "**",
      "destination": "/index.html"
      }
  ]
}